#div1{ 
	height: 150px;
	width: 400px;
	margin: 20px:
	border: 1px solid red:
	padding: 10px:

}

1. Total height = margin-top(20px) + border-top(1px) + padding-top (10px) + height of context (150px) 
+ padding-bottom (10px) + border-bottom( 1px) + margin-bottom (20px)
	Total height = 212px 

2. Total width = margin-left(20px) + border-left(1px) + padding-left (10px) + width of context (400px)
+ padding-right (10px) + border-right (1px) + margin-right(20px)
	Total width = 462 px 

3. Browser height = border-top (1px) + padding-top (10px) + height of context (150px) + padding-bottom(10px)
+ border-bottom (1px)
	Browser height = 172px

4. Browser width = border-left (1px) + padding-left (10px) + width of context (400px) + padding- right( 10px)
+ border-right(1px)
	Browser width = 422px